com/is/videoteka/service/MovieService.class
com/is/videoteka/mapper/RentMapper.class
com/is/videoteka/service/UserService.class
com/is/videoteka/service/impl/MovieServiceImpl.class
com/is/videoteka/controller/UserController.class
com/is/videoteka/entity/util/UserRole.class
com/is/videoteka/repository/MovieRepository.class
com/is/videoteka/util/UserRoleConverter.class
com/is/videoteka/response/MovieResponse.class
com/is/videoteka/mapper/UserMapper.class
com/is/videoteka/mapper/RentMapperImpl.class
com/is/videoteka/entity/Genre.class
com/is/videoteka/entity/User.class
com/is/videoteka/controller/MovieController.class
com/is/videoteka/repository/RentRepository.class
com/is/videoteka/entity/Movie.class
com/is/videoteka/service/impl/UserServiceImpl.class
com/is/videoteka/service/RentService.class
com/is/videoteka/exception/ExceptionAdviceController.class
com/is/videoteka/controller/RentController.class
com/is/videoteka/entity/Rent.class
com/is/videoteka/configuration/CorsConfiguration.class
com/is/videoteka/VideotekaApplication.class
com/is/videoteka/exception/BadRequestException.class
com/is/videoteka/exception/NotFoundException.class
com/is/videoteka/repository/UserRepository.class
com/is/videoteka/request/RentRequest.class
com/is/videoteka/service/impl/RentServiceImpl.class
com/is/videoteka/response/RentDetailsResponse.class
com/is/videoteka/response/UserResponse.class
com/is/videoteka/mapper/MovieMapper.class
com/is/videoteka/response/RentResponse.class
com/is/videoteka/mapper/MovieMapperImpl.class
com/is/videoteka/mapper/UserMapperImpl.class
